Analisis Salarios
…
options(scipen=999)

dfsalarios <- read_excel(here("Data/SalariosFut.xlsx"), 
                       col_types = c("text", "text", "text", 
                                     "date", "text"))
dfsalarios
## # A tibble: 258 × 5
##    JUGADOR          `SALARIO ANUAL` `SALARIO MENSUAL` HASTA               Equipo
##    <chr>            <chr>           <chr>             <dttm>              <chr> 
##  1 Toni KroosT. Kr… 12,10M          1,01M             2023-06-30 00:00:00 Real …
##  2 David AlabaD. A… 11,00M          917K              2026-06-30 00:00:00 Real …
##  3 Luka ModrićL. M… 11,00M          917K              2023-06-30 00:00:00 Real …
##  4 Antonio Rüdiger… 9,00M           750K              2026-06-30 00:00:00 Real …
##  5 Thibaut Courtoi… 7,20M           600K              2026-06-30 00:00:00 Real …
##  6 NachoNacho ESP3… 5,70M           475K              2023-06-30 00:00:00 Real …
##  7 Daniel Carvajal… 5,00M           417K              2025-06-30 00:00:00 Real …
##  8 Lucas VázquezLu… 4,50M           375K              2024-06-30 00:00:00 Real …
##  9 Ferland MendyF.… 4,50M           375K              2025-06-30 00:00:00 Real …
## 10 Éder MilitãoÉde… 4,50M           375K              2025-06-30 00:00:00 Real …
## # ℹ 248 more rows
…
dfsalariosFut
## # A tibble: 245 × 9
##    Nombre                 Edad Pais_Origen Salario_anual_EUR Salario_mensual_EUR
##    <chr>                 <dbl> <chr>                   <dbl>               <dbl>
##  1 Toni KroosT. Kroos       33 DEU                  12100000             1010000
##  2 David AlabaD. Alaba      31 AUTNGA               11000000              917000
##  3 Luka ModrićL. Modrić     38 HRV                  11000000              917000
##  4 Antonio RüdigerA. Rü…    30 DEUSLE                9000000              750000
##  5 Thibaut CourtoisT. C…    31 BEL                   7200000              600000
##  6 NachoNacho               33 ESP                   5700000              475000
##  7 Daniel CarvajalDani …    31 ESP                   5000000              417000
##  8 Lucas VázquezLucas V…    32 ESP                   4500000              375000
##  9 Ferland MendyF. Mend…    28 FRASEN                4500000              375000
## 10 Éder MilitãoÉder Mil…    25 BRAESP                4500000              375000
## # ℹ 235 more rows
## # ℹ 4 more variables: Salario_mensual_USD <dbl>, Salario_mensual_MX <dbl>,
## #   Equipo <chr>, HASTA <dttm>
…
