Analisis Salarios
…
    group_rows

library(here)

here() starts at C:/Users/abemo/OneDrive/Documentos/GitHub/Dhpc_debate

options(scipen=999)

dfsalarios <- read_excel(here("Data/SalariosFut.xlsx"), 
                       col_types = c("text", "text", "text", 
                                     "date", "text"))
dfsalarios

# A tibble: 258 × 5
   JUGADOR          `SALARIO ANUAL` `SALARIO MENSUAL` HASTA               Equipo
   <chr>            <chr>           <chr>             <dttm>              <chr> 
 1 Toni KroosT. Kr… 12,10M          1,01M             2023-06-30 00:00:00 Real …
 2 David AlabaD. A… 11,00M          917K              2026-06-30 00:00:00 Real …
 3 Luka ModrićL. M… 11,00M          917K              2023-06-30 00:00:00 Real …
 4 Antonio Rüdiger… 9,00M           750K              2026-06-30 00:00:00 Real …
 5 Thibaut Courtoi… 7,20M           600K              2026-06-30 00:00:00 Real …
 6 NachoNacho ESP3… 5,70M           475K              2023-06-30 00:00:00 Real …
 7 Daniel Carvajal… 5,00M           417K              2025-06-30 00:00:00 Real …
 8 Lucas VázquezLu… 4,50M           375K              2024-06-30 00:00:00 Real …
 9 Ferland MendyF.… 4,50M           375K              2025-06-30 00:00:00 Real …
10 Éder MilitãoÉde… 4,50M           375K              2025-06-30 00:00:00 Real …
# ℹ 248 more rows
…
